{ "_id" : { "$oid" : "4f97a49b2e034810f66c8307" }, "subscription-required":false, "updated-date" : { "$date" : 1336982531707 }, "mt-allowed" : true, "created-date" : { "$date" : 1335338139399 }, "status" : "active-production", "mt" : { "tpd" : "10000", "charging" : { "type" : "free" }, "aliasing" : [ "777" ], "default-sender-address" : "777", "tps" : "10" }, "created-by" : "sdpadmin", "app-id" : "APP_1000002", "ncs-type" : "sms", "operator" : "operator", "updated-by" : "sdpadmin" }
{ "_id" : { "$oid" : "4f97a49b2e0359745b1dd1c7" }, "subscription-required":false, "updated-date" : { "$date" : 1336982531439 }, "tpd" : "10000", "debit-min-amount" : "1", "trusted" : false, "credit-max-amount" : "100000", "created-date" : { "$date" : 1335338139331 }, "status" : "active-production", "credit-min-amount" : "1", "debit-allowed" : true, "created-by" : "sdpadmin", "credit-allowed" : true, "ncs-type" : "cas", "reserve-max-amount" : "100000", "operator" : "", "reserve-min-amount" : "1", "reserve-allowed" : true, "async-charging-resp-url" : "http://core.cms:4287/cms/cms-service/download/charging-notification", "app-id" : "APP_1000002", "tps" : "10", "debit-max-amount" : "100000", "updated-by" : "sdpadmin" , "charging":{"payment-instrument-additional-data":{},"party":"subscriber","meta-data":{},"allowed-payment-instruments":[{"service-charge-percentage":"30","name":"Mobile Account"}]}}
{ "_id" : { "$oid" : "4f97a49b2e0371f1b58ec096" }, "subscription-required":false, "updated-date" : { "$date" : 1336982531691 }, "created-date" : { "$date" : 1335338139373 }, "status" : "active-production", "mt" : { "tpd" : "10000", "delivery-report-url" : "", "charging" : { "type" : "free" }, "aliasing" : [ "777" ], "delivery-report-required" : false, "default-sender-address" : "777", "tps" : "10" }, "created-by" : "sdpadmin", "ncs-type" : "wap-push", "app-id" : "APP_1000002", "operator" : "operator", "updated-by" : "sdpadmin" }
