{
  "result": {
    "APP_000011": {
      "devices": {},
      "platforms": {
        "iOs": [
          {
            "version": "4.0",
            "content": [
              {
                "content-id": "15102310300009",
                "version": ""
              }
            ]
          },
          {
            "version": "4.1",
            "content": [
              {
                "content-id": "15102310300009",
                "version": ""
              }
            ]
          },
          {
            "version": "4.2",
            "content": [
              {
                "content-id": "15102310300009",
                "version": ""
              }
            ]
          },
          {
            "version": "4.3",
            "content": [
              {
                "content-id": "15102310300009",
                "version": ""
              }
            ]
          },
          {
            "version": "4.4",
            "content": [
              {
                "content-id": "15102310300009",
                "version": ""
              }
            ]
          },
          {
            "version": "5.0",
            "content": [
              {
                "content-id": "15102310300009",
                "version": ""
              }
            ]
          },
          {
            "version": "5.1",
            "content": [
              {
                "content-id": "15102310300009",
                "version": ""
              }
            ]
          }
        ],
        "Android": [
          {
            "version": "2.1",
            "content": [
              {
                "content-id": "1315072119360001",
                "version": ""
              }
            ]
          },
          {
            "version": "3.0",
            "content": [
              {
                "content-id": "1315072119360001",
                "version": ""
              }
            ]
          },
          {
            "version": "4.0",
            "content": [
              {
                "content-id": "15102310380015",
                "version": ""
              }
            ]
          },
          {
            "version": "4.1",
            "content": [
              {
                "content-id": "15102310380015",
                "version": ""
              }
            ]
          },
          {
            "version": "4.2",
            "content": [
              {
                "content-id": "15102310380015",
                "version": ""
              }
            ]
          },
          {
            "version": "4.3",
            "content": [
              {
                "content-id": "15102310380015",
                "version": ""
              }
            ]
          },
          {
            "version": "4.4",
            "content": [
              {
                "content-id": "15102310380015",
                "version": ""
              }
            ]
          },
          {
            "version": "5.0",
            "content": [
              {
                "content-id": "15102310380015",
                "version": ""
              }
            ]
          },
          {
            "version": "5.1",
            "content": [
              {
                "content-id": "15102310380015",
                "version": ""
              }
            ]
          }
        ]
      }
    }
  },
  "statusDescription": "Success",
  "statusCode": "S1000"
}i